"Sub_id","Group","Sex","ad_CC_1","ad_CC_2a","ad_CC_2b","ad_CC_3","ad_CC_4","ad_CC_5","ad_CC_6","ad_CC_7","ad_CST_L_cut","ad_CST_R_cut","fa_CC_1","fa_CC_2a","fa_CC_2b","fa_CC_3","fa_CC_4","fa_CC_5","fa_CC_6","fa_CC_7","fa_CST_L_cut","fa_CST_R_cut","md_CC_1","md_CC_2a","md_CC_2b","md_CC_3","md_CC_4","md_CC_5","md_CC_6","md_CC_7","md_CST_L_cut","md_CST_R_cut","rd_CC_1","rd_CC_2a","rd_CC_2b","rd_CC_3","rd_CC_4","rd_CC_5","rd_CC_6","rd_CC_7","rd_CST_L_cut","rd_CST_R_cut"
"01","Control Athletes","Female",0.001396503490009,0.001317895750366,0.001283609314369,0.001275356066183,0.001322526366828,0.001351120348411,0.001390198719368,0.001425539032676,0.001248054905229,0.001216300454493,0.645586768657746,0.612551551935031,0.593005755669519,0.59610923803761,0.618209159543312,0.625786173627356,0.62770465870571,0.662855979369455,0.555581328258817,0.559834360234526,0.000738785746925,0.000721978044988,0.000719440121408,0.000710184755597,0.000712879885305,0.000725894696556,0.000748217516577,0.000737895841134,0.000736130057226,0.000713084117731,0.000409926875575,0.000424019192536,0.000437355525266,0.000427599100636,0.000408056644887,0.000413281870977,0.000427226915375,0.000394074245519,0.000480167633345,0.000461475949413
"02","Control Athletes","Female",0.001417453362801,0.001259139763325,0.001267429782381,0.001307203869366,0.001325514841333,0.001353273926776,0.001343644024917,0.001392241042303,0.001236774832679,0.00123754153766,0.627822464508934,0.581010509961573,0.571600226396521,0.587684307826203,0.625936721309079,0.626573887222088,0.613216018378322,0.657302735031891,0.547228787180897,0.56204529527947,0.000774441833921,0.000717611832147,0.000727503916831,0.000738718271167,0.000712925834939,0.000729317861854,0.00073673574404,0.000726973539431,0.000731665726702,0.000722360164378,0.000452936070059,0.000446847866292,0.000457540984199,0.000454475471776,0.000406631331948,0.000417339829578,0.000433281603504,0.000394339787967,0.00047911117345,0.00046476947722
"03","Control Athletes","Female",0.001450016071142,0.001310408190236,0.001298760664662,0.001276295541897,0.001289648098311,0.001352747062224,0.001395431816874,0.001401673970715,0.001259842933369,0.001263343095813,0.641677935463813,0.599486588153754,0.579803781313867,0.583045527421168,0.595960024593226,0.617431387003248,0.638390846837233,0.651537460055296,0.560549200960118,0.571576312950644,0.000779932159874,0.000727214729072,0.000740959352293,0.000725254703107,0.000720585942434,0.000735223072008,0.000740984184344,0.000732989304789,0.00073453219713,0.000731277321467,0.000444890203476,0.000435617998646,0.000462058695943,0.000449734283955,0.000436054864289,0.000426461076652,0.000413760367659,0.000398646972066,0.000471876829029,0.000465244434005
"04","Control Athletes","Female",0.001467823576134,0.001374780917643,0.001396796483187,0.001370729846577,0.001370183875619,0.001369709300303,0.001400324139885,0.0014116604085,0.001234287055623,0.00126849711683,0.613138967742485,0.584072078514887,0.573929297853475,0.591300878631321,0.603064987987585,0.600692247161042,0.599544608623531,0.631036382977612,0.536814838546587,0.560317223965311,0.000798592186792,0.00077112077864,0.000801204374109,0.000766060056992,0.000748864676062,0.000751720813745,0.000771417225184,0.000757423967325,0.000736313483875,0.000739296660615,0.000463976491067,0.000469290708981,0.000503408319734,0.000463725162395,0.000438205076033,0.000442726570022,0.000456963768162,0.000430305746886,0.00048732669825,0.000474696432405
"05","Control Athletes","Female",0.001516026221071,0.001419131015151,0.001372121691308,0.001340200447818,0.001365161132156,0.001361085893409,0.001389866076791,0.001453961226738,0.001200111631638,0.001221251888076,0.618985171219663,0.584946358504602,0.563243875558517,0.565118119794551,0.578110486196115,0.583218397360825,0.561468579913286,0.613606719049723,0.506624459455534,0.51834693710592,0.000819442357,0.000789494013706,0.000788279616568,0.000768728117023,0.000773596086835,0.000764633612003,0.000795643500159,0.000792353368696,0.000744749204726,0.00074824026069,0.000471150423975,0.000474675513213,0.000496358579554,0.000482991951163,0.000477813563757,0.000466407470897,0.000498532211386,0.000461549439737,0.000517067991618,0.000511734446814
"06","Control Athletes","Female",0.00143454372904,0.001355243274794,0.001329332625535,0.001327908228921,0.00137279324077,0.001356580941941,0.001371818410272,0.001388084849487,0.001220835945051,0.001223686576411,0.61594612763202,0.591287411747836,0.577451516065499,0.578509628187771,0.608346505132304,0.603917827153039,0.59681211928025,0.620317326010619,0.534819222117083,0.54137997073781,0.000776000185043,0.000757935206251,0.000752281304618,0.000748743028933,0.000747295193919,0.000741862177137,0.000763454214793,0.000755328683062,0.000735913886242,0.000734546656554,0.00044672841315,0.000459281171373,0.000463755643782,0.000459160429242,0.000434546170108,0.000434502794674,0.000459272117179,0.000438950599886,0.000493452856418,0.000489976696665
"07","Control Athletes","Female",0.001427924722818,0.001362652947838,0.001352257522104,0.001363891396627,0.001363656027986,0.001379252954856,0.001425901412226,0.001487788117088,0.001237119045167,0.001237941711877,0.607594994795135,0.588364721273611,0.594027148553159,0.584171958591437,0.604078877344615,0.58611849230877,0.601458347352026,0.654636992125929,0.52370474836493,0.52526886729217,0.000783995957337,0.00076937156819,0.000757398009103,0.000768690335862,0.000752271337637,0.000777525280691,0.000790497634972,0.000779762485847,0.000756935551673,0.000754406566817,0.000462031573697,0.000472730878123,0.000459968252599,0.000471089805222,0.000446578993424,0.000476661443829,0.000472795746925,0.000425749670589,0.00051684380472,0.000512638994502
"08","Control Athletes","Female",0.001444519185927,0.00133647669165,0.001305460265567,0.001295766180782,0.001323353278494,0.001361594454906,0.001378648484867,0.001373270431976,0.001292281390928,0.00126245518361,0.657162482603956,0.624085596022276,0.614995838447034,0.604653582443937,0.622854754032434,0.626921271245171,0.632085045888939,0.656863361934089,0.565737766203209,0.559104279787617,0.000754310344535,0.000722538248642,0.00071307023562,0.000715863157942,0.000717257896827,0.000737243099552,0.000744224431242,0.000720233049618,0.000763166778978,0.00074954687218,0.000409205924222,0.000415569027198,0.00041687522084,0.000425911646823,0.000414210205397,0.00042506742158,0.000427012403952,0.000393714358122,0.000498609472922,0.00049309271646
"09","Control Athletes","Female",0.001518709395029,0.001409052743638,0.001448205999707,0.001416331466437,0.001385928666191,0.001458184876725,0.00144822265388,0.001508210029938,0.001242170414827,0.001216243142429,0.526713281204023,0.5027075130403,0.473691320546976,0.533436777536878,0.556065119659526,0.562560688588899,0.561937959146726,0.616164492732173,0.535633198553388,0.520484484349891,0.000927011078727,0.000875618489339,0.000929334004001,0.000849732880225,0.000807553876131,0.000849376046255,0.000842585478356,0.000833266453273,0.000743441496943,0.000736417053898,0.000631161919727,0.000608901361886,0.000669898006129,0.000566433587104,0.000518366481289,0.000544971630637,0.000539766890363,0.000495794665107,0.000494077038098,0.00049650400912
"10","Control Athletes","Female",0.001446216691858,0.001341470372417,0.0012924066812,0.001280240473755,0.001315852092706,0.001345197900389,0.001364581253639,0.001402481973537,0.001251135940858,0.001249750954381,0.613385892086864,0.604571515276047,0.598169876613666,0.589150757578399,0.592837427025013,0.598819552814034,0.590398641451375,0.639540542307093,0.556202338061366,0.557035695540622,0.000794065016395,0.000740742960463,0.000719227728134,0.000721421132663,0.000734489533012,0.000742191991953,0.000760844677082,0.000744641760095,0.000737702281243,0.000733372965525,0.000467989178524,0.000440379254644,0.000432638251581,0.000442011462094,0.000443808253084,0.000440689037257,0.00045897638859,0.000415721653068,0.000480985451555,0.000475183970829
"11","Control Athletes","Female",0.001494734228086,0.00137983325992,0.001388184134605,0.001405144512577,0.001411715470065,0.001402514448919,0.001411354538335,0.001418811487738,0.001253454198722,0.001249972794848,0.652178020270241,0.621444587459521,0.620454599514608,0.618991212386913,0.627060855342784,0.617766973143276,0.625648194551667,0.642647453581006,0.54631121470475,0.558351778019501,0.000780595909078,0.000742375783923,0.000747982167044,0.000753925925263,0.00075136660203,0.000756648671803,0.000757238894487,0.000751114435382,0.000746121748748,0.000733249701325,0.000423526751139,0.000423647046107,0.000427881184032,0.000428316631572,0.00042119216843,0.000433715782567,0.000430181072806,0.000417265909179,0.000492455523261,0.000474888154739
"12","Control Athletes","Female",0.001456344167707,0.001369973637455,0.001321491863387,0.001302037678149,0.001331162058907,0.001344995279209,0.001390640266889,0.001438589525847,0.001271954447146,0.001272369445083,0.623241156895433,0.582806664882906,0.564446174251462,0.558543101561628,0.573886763467732,0.584295487517049,0.570342178124865,0.620179804903291,0.541376202792852,0.545589896849702,0.000786716214754,0.000768252547702,0.000761796445588,0.000758141750954,0.000759140906158,0.000760651180419,0.000787420494777,0.000772232040745,0.00075500639474,0.000750705858852,0.000451902239687,0.000467392002911,0.000481948735845,0.000486193787253,0.000473130330051,0.00046847913062,0.000485810608226,0.000439053298431,0.000496532368644,0.000489874065562
"13","Control Non-Athletes","Female",0.001451047741243,0.001330101843236,0.001302275855186,0.0013358093936,0.001370378212852,0.0013686433501,0.001389936229747,0.001383463010125,0.00121006321135,0.001217733177181,0.598626370204335,0.552525030547509,0.542026098801313,0.552915323322184,0.571618559525404,0.581508653938361,0.56602798855015,0.574436679063571,0.508179359017646,0.511913867518853,0.000808098631665,0.000780943003715,0.000768853270218,0.000774913112106,0.000779460979515,0.000769230894439,0.000800325491698,0.000795656161489,0.000747956574493,0.000750113097494,0.000486624076907,0.000506363584049,0.000502141977917,0.000494464971013,0.000484002362341,0.00046952466662,0.000505520123131,0.000501752737329,0.000516903256563,0.000516303057515
"14","Control Non-Athletes","Female",0.001438593152287,0.001339554460792,0.00128048594126,0.001299859445779,0.001335551911336,0.001353026042945,0.001403697016428,0.001415257619499,0.001235551881017,0.001203794432444,0.638647793242282,0.59196401442455,0.586194841966045,0.591028081985412,0.608203310726422,0.616846385096031,0.621252428556795,0.64686357607377,0.556956519708785,0.545603950742233,0.000765938977121,0.000747817283753,0.000722641655485,0.000726133662423,0.000730267224329,0.000733474223888,0.000757771983366,0.000746838952792,0.000723117453963,0.000712634069645,0.000429611889369,0.000451948694792,0.000443719512138,0.000439270770613,0.000427624880678,0.000423698314129,0.000434809467002,0.000412629619438,0.000466900240292,0.000467053888047
"15","Control Non-Athletes","Female",0.001508480327377,0.001436659394708,0.00136779708365,0.001386522486771,0.001416785054337,0.00141142034289,0.00144671674723,0.001454684102585,0.001249266304769,0.001220505281662,0.635690514134638,0.595533514364844,0.575934372941937,0.598955448586439,0.612390532401343,0.61835447861364,0.620164233195338,0.633357020660557,0.533017695584302,0.529619522112901,0.000796576407049,0.000790526987267,0.000771631792508,0.000761275343869,0.000767747664459,0.000760728933131,0.000779265440414,0.000773644916279,0.000750536762926,0.00073587829569,0.000440624446462,0.000467460783298,0.000473549147235,0.00044865177197,0.00044322896969,0.000435383227988,0.000445539788271,0.000433125323388,0.000501171992143,0.000493564802629
"16","Control Non-Athletes","Female",0.001444143882088,0.001365502668537,0.001344832321399,0.001334261144136,0.001338386467433,0.001314362878039,0.001384763337041,0.001440110948924,0.001207341995627,0.001222327869083,0.633872378763894,0.607224192915151,0.589866654843335,0.582125299468388,0.59098378807732,0.590454170377145,0.60725200015808,0.644372229995564,0.505958058192455,0.510780904977865,0.00076995423155,0.000751090265026,0.000753613577091,0.000752708376261,0.000748506223841,0.000733764582781,0.000755122702733,0.00075689885717,0.000751098780073,0.000756264233717,0.000432859406359,0.000443884063542,0.000458004205207,0.000461931992524,0.000453566102435,0.00044346543532,0.000440302385306,0.000415292811334,0.000522977171732,0.000523232416427
"17","Control Non-Athletes","Female",0.001481453266644,0.001402020542116,0.001370765718826,0.001365496072455,0.001428082326193,0.001389500573541,0.001420068427975,0.001453908593776,0.00122187287174,0.001222782494187,0.593235134745566,0.568149700857963,0.55556639630555,0.553350926381757,0.56749253535333,0.571360664119364,0.579653088201106,0.603455720701238,0.491809718424421,0.499303402570888,0.000825411317441,0.000800106603099,0.000792946236485,0.000787790066949,0.000810300121791,0.000785615643452,0.000798912554773,0.000798967434135,0.000765860653591,0.000760004245486,0.00049739034185,0.00049914963329,0.000504036495115,0.000498937064571,0.000501409018945,0.00048367317834,0.00048833461831,0.000471496854212,0.000537854544106,0.000528615120733
"18","Control Non-Athletes","Female",0.001442016761185,0.001317108007605,0.00129730644706,0.001334796891215,0.001345830989668,0.001356827677989,0.001394298877005,0.001447872571461,0.001271724520031,0.001269787647375,0.615347981191317,0.570964835880769,0.560841905818356,0.571056420654087,0.587856932138909,0.58383906795818,0.574911141837634,0.625067503820387,0.521109229009473,0.509690241938622,0.000792144420292,0.000756509513019,0.00075535646723,0.000761262181877,0.000753665887219,0.000762672450401,0.000789198072398,0.000780095536835,0.000777384902326,0.000789538654448,0.000467208250176,0.000476210265515,0.000484381477531,0.000474494827367,0.000457583336118,0.000465594836674,0.000486647670424,0.000446207019717,0.000530215093408,0.00054941415777
"19","Control Non-Athletes","Female",0.001419180152354,0.001333492682319,0.001347675397837,0.001351924545728,0.001371342232159,0.001380472181424,0.001414014776033,0.00143682722726,0.001258156459757,0.001234514613863,0.617608762292735,0.584896275929618,0.58890121621376,0.583306129855915,0.594700462789936,0.604907995703124,0.598864984725032,0.634559791959665,0.534846536170177,0.528495785608917,0.000774107827371,0.000751630272272,0.000752500075991,0.000752637579998,0.000755011874188,0.000755480728857,0.000775233216658,0.0007653261823,0.000757636390825,0.000747917747418,0.000451571664468,0.000460699067366,0.00045491241483,0.000452994097216,0.000446846694892,0.000442985002276,0.000455842437154,0.000429575659864,0.000507376356209,0.000504619314092
"20","Control Non-Athletes","Female",0.00145555558317,0.001377749414601,0.001379452311062,0.001363185489862,0.001375701052637,0.001400617903852,0.001401509681667,0.001453549303798,0.001262381021619,0.001230810760705,0.608763360366585,0.598030841823213,0.584003458654368,0.589355676224831,0.612607124945326,0.617612331745784,0.609203352423107,0.638761475862006,0.563308507152444,0.545274999092743,0.000794664873439,0.000761643648141,0.000782338549637,0.000767542344319,0.000750742393234,0.00075661089384,0.000767874625614,0.00076828193128,0.000738178178019,0.000731717774907,0.000464219518488,0.000453590764705,0.000483781669627,0.000469720771582,0.000438263063361,0.000434607388696,0.000451057098299,0.000425648244778,0.000476076756515,0.000482171282066
"21","Control Non-Athletes","Female",0.001381179944116,0.001304892999411,0.001311722827314,0.001315689902621,0.001342617436514,0.001352078912343,0.001372938432652,0.001402986654349,0.001229872467221,0.001211254202615,0.590013496873955,0.548278855941442,0.569672573247436,0.569138446027204,0.575575281989497,0.579216411998047,0.580833410535068,0.613533918873069,0.53117629822911,0.525623987825595,0.0007736244045,0.000765832013862,0.000751464659305,0.000752131768281,0.000760328700131,0.000765234397678,0.000773928277205,0.000765546302385,0.000736187764989,0.000731732025177,0.000469846634519,0.000496301520859,0.000471335575371,0.000470352701354,0.000469184331596,0.000471812140429,0.000474423199353,0.000446826126505,0.000489345414138,0.000491970936335
"22","Control Non-Athletes","Female",0.001393257241395,0.00127385776195,0.001309201693553,0.001317090178921,0.001336543077307,0.001366454632189,0.00138413611202,0.001422488581505,0.001238860205738,0.001200141132051,0.599336698074711,0.560638563474667,0.565380191923124,0.569644266617026,0.595505938067734,0.590263046964215,0.583404374378934,0.639833369706718,0.54564820308126,0.53460539516928,0.000773786016913,0.00073946157541,0.000763909421114,0.000760407166671,0.000745678569073,0.000768169650403,0.000783181974832,0.000757032817846,0.000737837559431,0.000720203608141,0.000464050405935,0.000472263482683,0.000491263285103,0.000482065660477,0.000450246314192,0.000469027158736,0.000482704906967,0.000424304935779,0.000487326236298,0.00048023484593
"23","Control Non-Athletes","Female",0.001428544961747,0.001322453505467,0.001292117539545,0.001299540334848,0.00133605732977,0.001356863806326,0.0013869025416,0.001427077317923,0.00124915317528,0.001300540032001,0.65738871255369,0.615725678405443,0.601663844062661,0.580467852958047,0.607248007462744,0.606245769544136,0.607059667470021,0.652780838848377,0.540713726528553,0.544104218701008,0.000742325320948,0.000721563673901,0.000720059433827,0.000737465392606,0.00073436592904,0.000745991472813,0.000763591673879,0.000749160530413,0.000748043850136,0.000781877531651,0.000399215500575,0.000421118758237,0.000434030380874,0.000456427921684,0.000433520228615,0.000440555305548,0.000451936239379,0.000410202136743,0.000497489187459,0.000522546280802
"24","Control Non-Athletes","Female",0.001503321953404,0.001409205433463,0.00137250046401,0.001375935925445,0.001402521145355,0.001394871186291,0.001433083876908,0.001491296535903,0.001261128801538,0.001267221406619,0.64792112643059,0.578603570831584,0.566732789959888,0.580845558484909,0.595962574108179,0.602770557587932,0.601221015122939,0.64291603126699,0.527202530590788,0.526258187467725,0.000794703439571,0.000796608603416,0.000782176064585,0.000773868385382,0.000779605539197,0.000770757717748,0.000788812515533,0.000785387477714,0.00076776255215,0.00077102988007,0.000440394182907,0.000490310188198,0.000487013864564,0.00047283461516,0.000468147735536,0.000458700983332,0.000466676834814,0.00043243294888,0.000521079427332,0.000522934116636
"25","Contact-Sport Athletes","Female",0.001572822948885,0.00143943235959,0.001456390049953,0.00143576545833,0.001472696285033,0.001459789844817,0.001477919431477,0.001545455656629,0.001253478679955,0.001232169073732,0.59495024694406,0.548394332889379,0.510348409629076,0.510983005790779,0.548414138971411,0.55449315880444,0.53103675190997,0.613184643757285,0.529501261697444,0.531198552538162,0.000875394514457,0.000836981824664,0.000888065301223,0.000871685255807,0.000862957018113,0.000848165228951,0.000871275101436,0.000842279422382,0.000754017910648,0.000739513629971,0.000526680297231,0.000535756557208,0.000603902927346,0.000589645155144,0.000558087384169,0.000542352920513,0.000567952937159,0.000490691305178,0.000504287526627,0.000493185908304
"26","Contact-Sport Athletes","Female",0.001523855975035,0.001404161764318,0.001393499086478,0.001422633026832,0.00139683671304,0.001397888866114,0.001422003942432,0.001446420518517,0.001274544768287,0.001261739703451,0.590758061848593,0.533272963557501,0.497045169411781,0.521490965869398,0.55265827492152,0.531244497437922,0.535479782272886,0.582435488963098,0.530331569964798,0.525653092070552,0.000854342850885,0.000833046684428,0.000865425667828,0.000863092663368,0.000818643838706,0.000840830984974,0.000849191974766,0.000825719165325,0.000768657023598,0.000762787737985,0.000519586289029,0.000547489144552,0.00060138895885,0.000583322480875,0.000529547401858,0.000562302043432,0.000562785990634,0.000515368488658,0.000515713150867,0.00051331175601
"27","Contact-Sport Athletes","Female",0.001390087631884,0.001291870723639,0.001281430444258,0.001308518119814,0.001331153531552,0.001336869718593,0.001381689353422,0.001429675341844,0.00124064902665,0.001177896151837,0.592871145694817,0.566026444714853,0.554927808474691,0.568793727004642,0.58237389375367,0.583518224323675,0.572070233604525,0.618105870409438,0.525179917890878,0.511679849990937,0.000782794846133,0.000747298496165,0.000751205021031,0.000753757163769,0.00075415839669,0.00075415775664,0.000788409888344,0.000777442123512,0.000760541000849,0.000727946892377,0.000479148453567,0.000475012382759,0.000486092308835,0.000476376686093,0.000465660829899,0.000462801775627,0.000491770155669,0.000451325514204,0.00052048698839,0.000502972262684
"28","Contact-Sport Athletes","Female",0.001457828494112,0.001318840840968,0.001276320116062,0.001294068575466,0.001321454798851,0.001363530707355,0.001383266339112,0.001441902736074,0.001228601877086,0.001192693536656,0.605503474026968,0.567186948952075,0.56112367690287,0.558627946120083,0.584500247232883,0.596327308490327,0.588725342044765,0.654025628848288,0.52755518692583,0.517484336287197,0.000811046872464,0.000760520187846,0.000744960280098,0.000748834259674,0.000741381727954,0.000756172646572,0.000771123457727,0.000753617776324,0.00074029975703,0.000725540943592,0.000487656062169,0.000481359861086,0.000479280362649,0.000476217101919,0.000451345192047,0.000452493616157,0.000465052017313,0.000409475296599,0.000496148697457,0.000491964647112
"29","Contact-Sport Athletes","Female",0.001530829240567,0.001371202314834,0.001372751687263,0.001352555570907,0.001371407651074,0.001362791577372,0.001393791171082,0.001492507521475,0.001248313825345,0.001235925754481,0.61337303167459,0.563417177892018,0.558502249376589,0.572019979474806,0.579965741563831,0.604889843851546,0.594793752755827,0.663602596996656,0.519073809191517,0.525653611056701,0.000839347519807,0.000787422118965,0.000785890727883,0.000770023707852,0.000772066524288,0.000748195845061,0.000768882989638,0.00076690427377,0.000761092261948,0.000749916121084,0.000493606658956,0.000495532021145,0.000492460248044,0.000478757776431,0.000472395961084,0.000440897978763,0.000456428898804,0.000404102649998,0.000517481480131,0.000506911304372
"30","Contact-Sport Athletes","Female",0.001441067183878,0.001366746191058,0.001336698034561,0.001326984040066,0.00136018331496,0.00138515305977,0.001419002289088,0.001449467742601,0.001224774078687,0.001247144885581,0.588864734563092,0.558187404779152,0.558766185201621,0.560486789700418,0.583373036680768,0.580479380753097,0.586441226023284,0.628984581723857,0.529981259596951,0.539970705862031,0.000798781838682,0.000783112002294,0.000772687437342,0.000760189268916,0.000762695403045,0.000780127538245,0.000793719386182,0.000776819147576,0.000736968859911,0.000746298380067,0.000477639166474,0.000491294908049,0.000490682138559,0.000476791883228,0.000463951447386,0.000477614777123,0.000481077934891,0.000440494850109,0.000493066250859,0.000495875126984
"31","Contact-Sport Athletes","Female",0.001438947767644,0.001371782835234,0.001328247912783,0.0013369372729,0.001379767192389,0.001378146843054,0.001353255350521,0.001410642204628,0.001217715585873,0.001236921531675,0.641520381460252,0.628687184488756,0.610955611711143,0.611805065709182,0.631550682154042,0.630626929106242,0.615293948238553,0.64982861491133,0.542486519267971,0.558271459538449,0.000762518813089,0.000736271881189,0.000731169915232,0.00073308400581,0.00073798182277,0.000736310635521,0.000740389322593,0.000741436465011,0.000724964332192,0.000725747405284,0.000424304334936,0.000418516403795,0.0004326309164,0.000431157372807,0.000417089137866,0.000415392531224,0.000433956308489,0.000406833595157,0.000478588705316,0.000470160342286
"32","Contact-Sport Athletes","Female",0.001445122187561,0.001312020865377,0.001276552960526,0.00132604878469,0.001332882211895,0.001377164773818,0.001413881269539,0.001459535812238,0.001244696755,0.00124348803756,0.593753531316014,0.551039182018438,0.534419903552169,0.552339947503555,0.562558603998333,0.562395857633956,0.565000741934315,0.61860607294414,0.555689869669476,0.557279213221458,0.00081512897196,0.000775334147129,0.000771803636118,0.000776580784227,0.000773483862202,0.000803435186667,0.000821771878636,0.000799488871684,0.000730807474937,0.000728614692183,0.000500132363318,0.000506990788031,0.000519428974158,0.000501846784137,0.00049378468795,0.000516570392848,0.000525717182587,0.000469465401376,0.000473862835018,0.000471178019582
"33","Contact-Sport Athletes","Female",0.001475822664435,0.001397591602868,0.001344565979355,0.0013520355699,0.001368173235892,0.001384986017712,0.001422421869687,0.001459221123971,0.001215493826634,0.001264593614241,0.619210373244521,0.610508343878941,0.584658867065088,0.579711680622739,0.605485051035786,0.611445943785286,0.608173054503058,0.653229743093447,0.538901819860598,0.55115806990119,0.000796568777477,0.000765260290028,0.000756954385593,0.000763401801334,0.000748626028557,0.000755536293363,0.000776928320664,0.000757044005238,0.000726146546114,0.000748553358081,0.00045694183428,0.000449094633692,0.000463148589212,0.000469084917233,0.000438852424775,0.000440811431205,0.000454181546086,0.000405955445957,0.000481472906385,0.000490533229911
"34","Contact-Sport Athletes","Female",0.001451437502768,0.001386997867451,0.001338970485569,0.001336679702964,0.001335144400013,0.001350121852191,0.001394719395854,0.001409009671298,0.001216272856601,0.001205993753133,0.603272168298439,0.583768263676659,0.573491000570608,0.580703177082593,0.586046193118116,0.59309827835839,0.595167102911941,0.618960399373761,0.534798479912733,0.52887199605555,0.000797154226761,0.000780692245091,0.000764575012363,0.000755895535913,0.000751101666994,0.000753202387522,0.000774313877333,0.000766197675883,0.00073035429461,0.000730711336112,0.000470012588839,0.000477539434256,0.000477377275994,0.000465503452383,0.000459080300498,0.000454742655264,0.000464111117999,0.000444791678377,0.000487395013749,0.00049307012757
"35","Contact-Sport Athletes","Female",0.001476600628257,0.001400469557939,0.001313987550658,0.001319533138769,0.001340627223992,0.001343913966135,0.001362376961128,0.001429804777377,0.001244973075086,0.001231105211254,0.628198965192886,0.598536369319876,0.586100049683971,0.588349059560866,0.605604625444983,0.602404535146598,0.589921477984739,0.638739280474718,0.541825516971363,0.542355461597302,0.000789643836826,0.000772576401382,0.000743581836687,0.00074222877764,0.000736431383085,0.000741574410164,0.000763230728134,0.000761266711885,0.000737950397011,0.00073231359688,0.000446165441084,0.000458629822799,0.000458378979945,0.000453576597191,0.000434333462721,0.000440404632295,0.000463657611477,0.0004269976794,0.000484439058235,0.000482917789932
"36","Contact-Sport Athletes","Female",0.001377032947231,0.001293237401923,0.001287852368811,0.00129901834073,0.001337481891929,0.0013551886528,0.001329976666221,0.001343711445527,0.001263095488751,0.001235024085422,0.599370053813041,0.574401289543358,0.581546428571279,0.592943331920766,0.609145776675517,0.604328197668292,0.596777064319977,0.634670416660312,0.542936030078118,0.541583797102223,0.000762193771603,0.000739472236229,0.000733464176742,0.000726069325467,0.000734320813615,0.000750370454014,0.000742961282888,0.000724481331347,0.000757761427601,0.000741006268979,0.000454774183643,0.000462589653315,0.00045627008073,0.000439594817897,0.000432740274641,0.00044796135425,0.000449453591702,0.000414866274411,0.000505094397489,0.000493997360749
"37","Control Athletes","Male",0.001452094910283,0.001343832070975,0.001313563482638,0.001326097381994,0.001354923521485,0.00137483696498,0.001421307996126,0.001421856669877,0.001220422775071,0.001197039913278,0.680607314234636,0.634784023403787,0.626092866208276,0.624969643669945,0.632552916509127,0.635172256620825,0.634288322154433,0.652715143894948,0.54887046802602,0.54663681383491,0.000737116338472,0.000718998629439,0.000712445453751,0.000713193784091,0.000718853108718,0.000727468312393,0.000755990437405,0.000746525580428,0.000721280191677,0.000709792335646,0.000379627052454,0.000406581908601,0.000411886439085,0.000406741984883,0.000400817902237,0.000403783985944,0.000423331657779,0.000408860035207,0.000471708899714,0.000466168546782
"38","Control Athletes","Male",0.001499415241674,0.001343072988197,0.001309281172985,0.001304136155134,0.001340925052373,0.001361583626857,0.001390653386949,0.001433814428641,0.001177847224896,0.001161708749139,0.650208292158782,0.600938879123273,0.600854098819279,0.601401419942656,0.606845868900887,0.597790897704378,0.603571691227211,0.650627915065296,0.530132633720934,0.530275399632942,0.000784506152874,0.000740077230817,0.000726615377602,0.000716085945501,0.000726781972067,0.000747924819985,0.000765978845504,0.000752589612502,0.000709777484877,0.000696245358111,0.00042705160675,0.000438579351737,0.000435282479809,0.000422060840685,0.000419710431964,0.000441095417123,0.000453641575311,0.000411977204601,0.000475742614963,0.000463513662501
"39","Control Athletes","Male",0.001418475050268,0.00134833940648,0.001285489208913,0.001345589453739,0.001350089622679,0.00137247093224,0.001413705184368,0.001516483011338,0.001261785581538,0.001253199921435,0.59985140466849,0.579916735186373,0.565738957585683,0.592821190294819,0.603857230529637,0.607513581725488,0.60430861620595,0.6583997637038,0.556903432086244,0.560300820412616,0.000795692906051,0.000762220152185,0.000745229716645,0.000748445882576,0.000740370274504,0.000754481932727,0.000776038611878,0.000787421609262,0.000736948472826,0.00073164878206,0.000484301833695,0.000469160524225,0.00047509996994,0.000449874097765,0.000435510600535,0.000445487432939,0.000457205326115,0.000422890908464,0.000474529917946,0.000470873212846
"40","Control Athletes","Male",0.001414835074244,0.001327134495695,0.00130959126292,0.001289644270433,0.001323736818806,0.001342209273041,0.001375932474635,0.001371983660384,0.0012079013475,0.001187967901286,0.622034039145533,0.574037653981259,0.586287215879415,0.577751398528115,0.593256141409384,0.612170736444422,0.597742454072188,0.617397957423985,0.543160570059289,0.54367047054245,0.000767948242688,0.000756276620704,0.000738910648189,0.000733252898467,0.000737642919545,0.000731981266253,0.000767164851473,0.00075221911323,0.000719854025835,0.000706840665178,0.000444504826689,0.000470847683369,0.000453570340246,0.000455057212523,0.00044459596986,0.0004268672627,0.00046278103993,0.000442336839503,0.000475830365119,0.000466277047412
"41","Control Athletes","Male",0.001451589937877,0.001354106912063,0.001305354749501,0.001279843805042,0.001322942703376,0.001346832012551,0.001364648388277,0.001418359125411,0.001186159485143,0.001158178247273,0.623498159413074,0.600926434682935,0.600923211354203,0.585759927373302,0.603948420125321,0.611374143907756,0.613805387350757,0.668581092777585,0.541728066513732,0.53141952575341,0.000786060923725,0.000748689283639,0.000720555842756,0.000719779273452,0.000724861087591,0.000732708865289,0.000738445216623,0.000728990112,0.000705706071444,0.000694498548341,0.000453296416645,0.000445980469436,0.000428156389379,0.0004397470074,0.000425820280005,0.000425647291429,0.000425343630503,0.000384305605492,0.000465479364934,0.00046265869852
"42","Control Athletes","Male",0.001419573206486,0.001331630627835,0.001295757133441,0.001340757808053,0.00133276892652,0.001398887451318,0.001396464191401,0.001428289683634,0.001233495311352,0.001183334482039,0.618740515978553,0.584631821102101,0.556720717601104,0.59333323136078,0.585941865828711,0.582714163913771,0.574724588348457,0.630358382083471,0.539906722396468,0.521419580603179,0.000775660990173,0.000752783448877,0.000757679315435,0.000754154524885,0.000749865195794,0.000791229061194,0.000795201713295,0.000765978502816,0.000737903830565,0.00071865747397,0.000453704881693,0.000463359858903,0.000488640406619,0.000460852883146,0.000458413330488,0.000487399866786,0.000494570473927,0.000434822912034,0.000490108090349,0.000486318969976
"43","Control Athletes","Male",0.001576258415871,0.001308062334307,0.001319383562102,0.001332915170019,0.001363665883612,0.001373328061387,0.001368625499118,0.001422139176317,0.001205739864113,0.001202138545911,0.658512328217741,0.590285579747713,0.586617591288518,0.591929891311479,0.610515698424562,0.622167081067438,0.619431396387921,0.650170553718631,0.537312124961184,0.532870543930326,0.000825098722015,0.000735257004479,0.000741087084363,0.000740761505823,0.000744680130425,0.000737857275123,0.000742153200705,0.000747939932029,0.000720509129429,0.000720355841049,0.000449518875892,0.000448854339578,0.000451938845628,0.000444684673302,0.000435187253539,0.000420121882142,0.000428917051901,0.000410840310122,0.00047789376221,0.000479464488505
"45","Control Athletes","Male",0.001467437674849,0.001351049996984,0.00127808306173,0.001273684737412,0.001341812229658,0.001375559938584,0.001390761873257,0.001413481785733,0.001216745270595,0.001203750480695,0.638871532636835,0.603479642494829,0.577510429313596,0.577656248630552,0.592483723655254,0.602488845058762,0.600279032504612,0.654338114965764,0.563319308450636,0.559528241680662,0.000785662591994,0.000752240259984,0.000736216028425,0.000731491441869,0.000756847300635,0.000769108432424,0.000776557895069,0.000742300433854,0.000711170471604,0.000704182873953,0.000444775051042,0.000452835391122,0.000465282511939,0.000460394793914,0.000464364835901,0.000465882679217,0.000469455905772,0.000406709758172,0.000458383072064,0.000454399070545
"46","Control Athletes","Male",0.001486602973566,0.001345661566539,0.001329855084942,0.001323478039106,0.001352849057167,0.001372066393619,0.001406458079691,0.001524280476003,0.001241853346931,0.001198735813941,0.5960500983611,0.553548505008268,0.552916921092918,0.549907712128029,0.567203389941572,0.586286851773445,0.580292104883459,0.644506287789801,0.540910805842819,0.529781723997762,0.000830322028487,0.000787999865215,0.00078281305428,0.000778890342413,0.000785106894925,0.00078321638721,0.000808392409616,0.000809766539654,0.000744005037169,0.000726628474408,0.000502181556073,0.000509169015524,0.000509292039244,0.000506596494836,0.000501235814456,0.000488791383777,0.000509359574695,0.000452509571528,0.000495080882469,0.000490574804346
"47","Control Athletes","Male",0.001490992188673,0.001400287314174,0.00135142680612,0.001338170002763,0.001367863669202,0.001388144424772,0.001434354005189,0.001478970138641,0.001234960967475,0.001209546769986,0.619089717511421,0.579395558274102,0.573952881785345,0.571886020995337,0.593356877963576,0.595212948458344,0.607137555449918,0.642155177184338,0.530055177528367,0.52496318785571,0.000807166888801,0.000792916037579,0.000771052968027,0.000760070700726,0.000760494270852,0.000769630508946,0.000782104078424,0.000778951628273,0.00074457484248,0.000733065160987,0.000465254239237,0.000489230399077,0.000480866048851,0.000471021050053,0.000456809571653,0.000460373551389,0.00045597911453,0.000428942372704,0.000499381779489,0.000494824356083
"48","Control Athletes","Male",0.001427104141222,0.0013839166505,0.001355131034356,0.00135115207444,0.001378907116059,0.001399975016719,0.00142478560539,0.001455695358214,0.001227127584728,0.001242157199541,0.628431876657705,0.621411686396873,0.609173305412371,0.592251571559393,0.619921744386579,0.623343918237151,0.612042804707684,0.654130663920537,0.54394205295931,0.573036776096931,0.000769378865388,0.000752758008465,0.0007481384285,0.00075384777178,0.000746573035902,0.000753431503914,0.00077058285418,0.000753145705542,0.000729660602979,0.000719079751866,0.000440516228418,0.000437178687314,0.00044464212507,0.000455195620503,0.000430405995962,0.000430159748003,0.000443481478344,0.00040187087906,0.000480927111741,0.000457541028031
"49","Control Non-Athletes","Male",0.001446993567471,0.001313822142158,0.001227088967235,0.001228028712112,0.001272599031363,0.001282233021615,0.001332923761879,0.001402385923043,0.001200613842373,0.001224816125333,0.606666619775354,0.559577764111236,0.569866736182909,0.560502815878717,0.575210298044603,0.585784248540444,0.59342801013353,0.640910603256459,0.524252859860556,0.537932609721816,0.000798438164154,0.000767412443015,0.000719080214942,0.000721826161289,0.000730622940927,0.000725391302368,0.0007445294431,0.000744157135372,0.000730130219403,0.000734319396727,0.000474160462387,0.000494207593916,0.000465075839039,0.000468724885819,0.000459634895324,0.000446970442174,0.000450332283829,0.000415042741563,0.000494888408303,0.000489071032077
"50","Control Non-Athletes","Male",0.001389251193501,0.001317694056408,0.00130299735833,0.001302545768352,0.001287893487902,0.001310950057185,0.001371005274701,0.001433120876497,0.001268377004807,0.001279326603928,0.646102595683827,0.603589280465742,0.594094693090735,0.58826158631545,0.586459637500023,0.598777354383199,0.595566055415021,0.617613923172497,0.575022878903478,0.574619834636334,0.000739122247638,0.000733488243212,0.000729047172225,0.000731992935785,0.000725417476304,0.000732003681184,0.000765436384864,0.000780141834833,0.000737166487982,0.000744647273977,0.000414057774226,0.000441385336883,0.000442072078949,0.000446716519278,0.000444179470831,0.000442530492828,0.000462651939818,0.000453652313962,0.000471561229411,0.000477307608914
"51","Control Non-Athletes","Male",0.001438984263192,0.00137132227487,0.001359192726514,0.00137294962163,0.001388326233312,0.001401424615886,0.001442667544036,0.001477016035376,0.001177925644819,0.001178214640572,0.58026357451661,0.555422132566713,0.564107118680634,0.574233349238356,0.588688591633434,0.585923238707534,0.588562953225849,0.635075544974823,0.498260574910766,0.491822157491978,0.000815820923687,0.000793205700764,0.000779660737798,0.000775182902405,0.000768719521216,0.000776631481723,0.000797123744475,0.000780854736167,0.000734480664681,0.000739909776891,0.000504239253695,0.00050414741367,0.000489894743187,0.000476299542716,0.000458916164833,0.000464234914594,0.00047435184432,0.000432774086556,0.000512758174477,0.000520757345388
"52","Control Non-Athletes","Male",0.001432802742261,0.001392091655553,0.001344844230541,0.001348456733344,0.001353803476636,0.001379421280581,0.001433523970003,0.001480525986503,0.001249065781417,0.001242138456754,0.566066641782009,0.553051987850345,0.550241165331584,0.558998321356629,0.569952057289679,0.585376521682882,0.575877233374248,0.621041910146936,0.518516460357341,0.526547750729945,0.000822777924315,0.000811232266361,0.000791091351294,0.000784869686735,0.000775367571996,0.000776678504607,0.000813819945875,0.000806216440694,0.000766344112604,0.000755544215406,0.000517765515958,0.00052080257174,0.000514214911656,0.000503076163423,0.000486149619498,0.000475307117096,0.000503967933514,0.000469061667798,0.000524983278679,0.000512247094676
"53","Control Non-Athletes","Male",0.001442680208013,0.001356851397412,0.001309684840398,0.001337569925807,0.00134881599389,0.001364975194846,0.001442845392032,0.001498720240145,0.001238771969415,0.0012433575418,0.585950329110507,0.561750576595107,0.557182640127492,0.569194674948295,0.577339263627378,0.595632970144691,0.582305229765317,0.620849365416325,0.548175830845981,0.550539383732728,0.000809913354446,0.000783864461044,0.000757511445261,0.000761674537242,0.000758365254744,0.0007555236379,0.000809774446892,0.00081301844195,0.000734886640677,0.000736228001198,0.000493529927352,0.00049737099263,0.000481424747776,0.000473726843051,0.000463139885108,0.000450797859579,0.000493238974018,0.000470167542881,0.000482943976148,0.00048266323049
"54","Control Non-Athletes","Male",0.001491692436519,0.001386498267628,0.001337646867662,0.00136006887899,0.001359415800102,0.001383128546541,0.001413707872062,0.00147803317619,0.001225738165414,0.0012267721049,0.618156177821335,0.583648799732751,0.56461981427526,0.577880717672969,0.592632942085002,0.593833661621493,0.577647618273469,0.634996575790701,0.534927874305561,0.540440437716719,0.000810888090106,0.000775806175512,0.000765968716806,0.0007687541935,0.000755675013817,0.000770679834226,0.000799238353008,0.000790247383938,0.00073364968843,0.000728885480208,0.000470485917473,0.000470460129844,0.000480129642035,0.000473096851042,0.000453804621629,0.000464455478175,0.000492003593265,0.000446354487753,0.000487605449798,0.000479942167728
"55","Control Non-Athletes","Male",0.001353309644837,0.00127591711621,0.001272091113064,0.001281555817675,0.001290298485487,0.001306082260734,0.001372833319215,0.001399795333288,0.001199645666956,0.001212632689652,0.571311697487889,0.561952798959713,0.55440973682282,0.56565485812718,0.581760021496474,0.59583131260523,0.611515892296871,0.640480032032459,0.548765863219008,0.561475524653808,0.000780353397815,0.000742766247302,0.000747149762136,0.00073567615945,0.000727105065269,0.000728655859759,0.000751248499673,0.000745544799498,0.000708555173861,0.000706221288379,0.00049387527434,0.000476190813126,0.00048467908666,0.000462736329947,0.000445508354387,0.000439942659364,0.000440456089775,0.000418419532552,0.000463009927717,0.000453015587941
"56","Control Non-Athletes","Male",0.00143829948359,0.001366849191796,0.001370418262564,0.001353299899441,0.00137633273333,0.001385795369965,0.001456378168158,0.00145865628703,0.001280476345548,0.001268896549075,0.629313783641804,0.605094962711375,0.598140587082212,0.5887527463362,0.609781805079583,0.608462030844138,0.605864812687369,0.639999667978637,0.550632144778061,0.543876899619512,0.0007783585379,0.000759935683596,0.000764016690798,0.000756380651114,0.00075503288481,0.00076238583479,0.000806316407169,0.000780791806399,0.00075627691213,0.000754964087425,0.000448388065427,0.000456478929543,0.000460815905489,0.00045792102694,0.000444382960766,0.000450681066721,0.000481285526878,0.000441859566159,0.000494177194893,0.000497997856531
"57","Control Non-Athletes","Male",0.001370765380783,0.001303344577219,0.00129001672428,0.001290919413227,0.001319115872654,0.001342225509758,0.00138973326259,0.001474274453144,0.001170268392499,0.001212491060646,0.601293386785711,0.597674717094201,0.6039116180748,0.60151747454582,0.615631969207829,0.614385957948735,0.623585072263534,0.668749433286643,0.524961908316073,0.55478438675405,0.000758700665524,0.000726206043423,0.000712647845109,0.00070674262374,0.00070761136795,0.000724401151682,0.000742073283093,0.000751338015695,0.000707812595073,0.000711201371483,0.000452668308167,0.000437636776597,0.000423963405199,0.000414654229129,0.000401859115153,0.000415488972623,0.000418243293324,0.000389869796587,0.000476584696229,0.000460556527149
"58","Control Non-Athletes","Male",0.001472461468995,0.001337219319716,0.001299619522973,0.001309325254646,0.001334803290442,0.001378242876578,0.001436853192503,0.001434634016942,0.001246826252576,0.001249216944529,0.607829726297609,0.557486065166732,0.547482548265373,0.555237604786296,0.579422179468603,0.574821181732637,0.560935456226455,0.602559972283423,0.532511974139623,0.544871361674637,0.000808515091114,0.000772165804938,0.000761917328585,0.00076075986813,0.000756960065171,0.000789509209859,0.000828998025809,0.000793687574325,0.000750557871452,0.000741906426736,0.000476541901653,0.000489639047413,0.000493066230773,0.000486477175939,0.000468038452439,0.000495142376615,0.000525070442649,0.000473214353021,0.000502423681577,0.000488251167758
"59","Control Non-Athletes","Male",0.001449342389677,0.001316816217167,0.00131520658024,0.001346688049044,0.001363390172573,0.001386983777808,0.001424508917343,0.00147289579428,0.001280765273264,0.001273908739442,0.618880459423387,0.578912266196506,0.541732034303508,0.545928744050728,0.570089909560617,0.588341719074521,0.577783180773511,0.640587162653849,0.52842708120348,0.537707840936389,0.000794605109474,0.000752036239858,0.00078154679094,0.000792821515015,0.000778508397709,0.000773827726285,0.000801380096131,0.000780646287336,0.000775313667726,0.000759329061344,0.000467236469602,0.000469646250814,0.000514716896623,0.000515888247915,0.000486067510111,0.000467249700686,0.000489815685473,0.000434521533887,0.000522587864823,0.000502039222095
"60","Control Non-Athletes","Male",0.001415323099874,0.001335207445405,0.001288907130975,0.001330870442189,0.00135183203905,0.001353104258273,0.001395381097296,0.001461437007644,0.001215910918959,0.001213356578598,0.598522990292665,0.569035715881375,0.540669237567553,0.553197761501395,0.586229673905163,0.588858052499592,0.581094403949231,0.6242086444449,0.534514247291646,0.542027357882759,0.000790169020118,0.00076917301682,0.000765608180972,0.000774168464247,0.000752269337192,0.000753255016327,0.000787356783258,0.000787074238384,0.000728580784257,0.000721655806827,0.000477591980143,0.000486155802631,0.000503958706122,0.000495817475312,0.000452487986422,0.000453330395064,0.000483344626673,0.000449892853971,0.000484915717,0.000475805420912
"61","Contact-Sport Athletes","Male",0.001419240668004,0.001294232038513,0.00127203104789,0.001293886890903,0.00134855503604,0.001363916994843,0.001379071097522,0.001424708144878,0.001215831050668,0.001209091323786,0.622872062735572,0.556224791659274,0.567744226994369,0.565544906447011,0.582455825590345,0.596443611609868,0.585012240696026,0.630837976473188,0.515395810684177,0.517097638734925,0.000766010048139,0.000749101968985,0.00072948065917,0.000742935332049,0.000760838141448,0.000754667826836,0.000772697514627,0.000761318469143,0.000745542495551,0.000739943706289,0.000439394738633,0.00047653693416,0.000458205464581,0.000467459552473,0.000466979694476,0.000450043243462,0.000469510722266,0.000429623630719,0.000510398217907,0.00050536989759
"62","Contact-Sport Athletes","Male",0.001479638345993,0.001349471730819,0.001307935759223,0.001355372545423,0.001421770160868,0.001476609549535,0.001501676252472,0.001456274168728,0.001254208755606,0.001210553823985,0.627082397601586,0.581118761764714,0.574330217499699,0.574873289749728,0.595898632449038,0.585907816985344,0.566635409719645,0.614272670149674,0.547995198296079,0.54602979512228,0.000791846793454,0.000763154872043,0.000748328211294,0.000769136504589,0.000793480277179,0.000831541900129,0.00087395585915,0.00079694037009,0.000741270926033,0.000716344699762,0.000447951017207,0.000469996442572,0.000468524437541,0.000476018483696,0.000479335335572,0.0005090080753,0.000560095662215,0.000467273470548,0.000484802011024,0.000469240137425
"63","Contact-Sport Athletes","Male",0.001523813394278,0.001339880171828,0.001272926982964,0.001254874742188,0.001319970952296,0.001354576147238,0.001394489790536,0.001412207098747,0.001248392297883,0.001244170770125,0.650117052059392,0.589733974079839,0.567185185028405,0.551209445507293,0.575948510250529,0.577551836888566,0.570705705985823,0.632366026076578,0.56142479888116,0.5639174658245,0.000802770126587,0.000750843412974,0.000736653034877,0.000737474244318,0.000753153649115,0.000772936460133,0.000798684022762,0.000758438845645,0.000730647897638,0.000723916440328,0.000442248491697,0.000456325033908,0.000468516060634,0.000478773995928,0.000469744998147,0.000482116616702,0.000500781139144,0.000431554719353,0.000471775697443,0.000463789276019
"64","Contact-Sport Athletes","Male",0.001449463277803,0.00133049653718,0.001324990623185,0.001322069638386,0.001356111154396,0.001355241783781,0.00136554854811,0.001432049603574,0.001222919577806,0.001199187052268,0.602175260779405,0.531783032169383,0.546868362049217,0.555274443923313,0.572425368589778,0.589376899931325,0.55629002096447,0.592612713750204,0.511011617902333,0.501676965915759,0.000814210958747,0.000793602589234,0.000784510383393,0.000772610392518,0.000773496661788,0.000757176789674,0.000795335056191,0.000799838787986,0.000750693607588,0.000741700229568,0.000496584798399,0.000525155615309,0.00051427026373,0.00049788076979,0.000482189415401,0.000458144292197,0.000510228310342,0.000483733380193,0.000514580622111,0.000512956817945
"65","Contact-Sport Athletes","Male",0.001462651477688,0.001378745643754,0.001346117730611,0.001318476758169,0.001383022450119,0.00140277812256,0.001429038464216,0.001416118274923,0.001221417860729,0.001231156657649,0.601295498996144,0.565053355234095,0.564612747728446,0.549108152552379,0.570893015925194,0.59019347329263,0.596219663886089,0.61555002015686,0.525669246308921,0.525938521834563,0.000804988538348,0.00078819763411,0.000772627954813,0.000769226406667,0.000789323682342,0.000783663369435,0.000796007432624,0.00077362513914,0.000741872839591,0.000744997133974,0.000476157069249,0.000492923628582,0.00048588306714,0.000494601230539,0.00049247429837,0.000474105992824,0.000479491916282,0.000452378571307,0.000502100329002,0.000501917372397
"66","Contact-Sport Athletes","Male",0.001436563626228,0.001373609085354,0.001280517758059,0.001302217437774,0.00136012316589,0.001372795619256,0.001398902344762,0.0013843695254,0.001240542194621,0.001220256250744,0.625463381251316,0.588242770797455,0.593840095661392,0.591641741242963,0.608293627534091,0.61546364802231,0.604255786799072,0.610229403786587,0.536608347826541,0.525706450027877,0.000767023223891,0.000762589280298,0.000718015425952,0.000727839612647,0.000741944697281,0.000742953684269,0.000768029588429,0.000760965678314,0.000742540803411,0.000739985700679,0.000432253022407,0.000457079377275,0.000436764259765,0.0004406507005,0.000432855463227,0.000428032716849,0.00045259321072,0.000449263754546,0.00049354010796,0.000499850425601
"67","Contact-Sport Athletes","Male",0.001434606008364,0.001350831211264,0.001336734879807,0.001323173269572,0.001377456051619,0.001354612040846,0.001391245701169,0.001446669633036,0.001244414056878,0.001237902138205,0.643191689315712,0.605605371786115,0.600002017603853,0.584460587346472,0.606985150513964,0.608582248798302,0.602577146421216,0.648669374537934,0.551387763513717,0.551749779709843,0.000751058629218,0.000734975547931,0.000736297573463,0.000739154936568,0.000750643876295,0.00073640074011,0.000761299031549,0.000759284445683,0.000733090038452,0.000726774889218,0.000409284940699,0.000427047716235,0.000436078920661,0.000447145770055,0.000437237788438,0.000427295089445,0.000446325696622,0.000415591852006,0.000477428029239,0.000471211264857
"68","Contact-Sport Athletes","Male",0.001478562642667,0.001426798204652,0.001396328859288,0.001397702738825,0.001392966429417,0.00139673392359,0.00142639080553,0.001481071658531,0.001183491886914,0.001183023616062,0.613431393464464,0.613300829762948,0.587905528262157,0.577695850041034,0.596978002705616,0.599842084464962,0.603320284547843,0.635689116548568,0.499636020546409,0.501618925151717,0.00080483253209,0.000778889047326,0.000782962123821,0.000794196236466,0.00077144430124,0.000770965449319,0.000782840682998,0.00078438597813,0.000737467130357,0.000734135436545,0.000467967475895,0.00045493446925,0.000476278755384,0.00049244298499,0.000460683237512,0.000458081212599,0.000461065621861,0.00043604313788,0.000514454752016,0.000509691347173
"69","Contact-Sport Athletes","Male",0.0013893440694,0.001318787213929,0.001276564675994,0.001292041948609,0.001319618240503,0.001321977831887,0.00140238033511,0.001466714146773,0.001170202669487,0.001166740155213,0.59473558143743,0.564228602526826,0.568076267498872,0.559185699524727,0.563952976487784,0.584352038163866,0.593619531349625,0.622036493849537,0.486955500757309,0.494052601487807,0.000787595464838,0.000761919255078,0.000737345432438,0.000745923237493,0.000755849228207,0.000737857227787,0.000778409753741,0.0007858563816,0.000737879065753,0.000730334075805,0.000486721162512,0.000483485275942,0.00046773581093,0.000472863881737,0.000473964721816,0.000445796925698,0.000466424463677,0.000445427498571,0.000521717263805,0.000512131036292
"70","Contact-Sport Athletes","Male",0.001422489131337,0.001335375688255,0.001298478828653,0.001313075147496,0.001368805036991,0.001393517047413,0.001403776734078,0.001439763803933,0.001227929223586,0.001229422414836,0.61454727289169,0.585294589965159,0.590010217130885,0.577573191967498,0.586854624626817,0.606502112782361,0.597852382850473,0.636859072131892,0.525545877642895,0.531043606318245,0.000778786901417,0.000751498274655,0.000724796863855,0.00074084587892,0.000763561641643,0.000762265396011,0.000777749321136,0.000768452224152,0.000745649840258,0.000742357061571,0.00045693578548,0.00045955956742,0.000437955882167,0.000454731244226,0.000460939943772,0.000446639570486,0.000464735614895,0.000432796434373,0.000504510147927,0.000498824385036
"71","Contact-Sport Athletes","Male",0.001460697674418,0.001373423607655,0.001344217432094,0.001328435464474,0.001358002538773,0.001351412651891,0.00139373220021,0.001403501435738,0.001304210966895,0.001252409038266,0.57238943372681,0.558853209625426,0.570557091220872,0.568799216136757,0.578376587205524,0.571777663919973,0.551955344579865,0.570815020655377,0.522816203561631,0.523528532508862,0.000826588018035,0.000792846164069,0.000772001235691,0.000763610415125,0.000771809936558,0.000771517838453,0.000811369515237,0.000807148792254,0.000805170947525,0.000763535154433,0.000509533189844,0.000502557441975,0.000485893137546,0.000481197890627,0.00047871363591,0.000481570431333,0.000520188172639,0.00050897247045,0.000555650938022,0.000519098212736
"72","Contact-Sport Athletes","Male",0.001476545836625,0.001397374289497,0.001358402711345,0.001303534194303,0.001348428791932,0.001341364189946,0.001420626869731,0.001399381298478,0.001199127372993,0.001198339226085,0.662767279517145,0.624528347082793,0.625980987631177,0.600393347500591,0.615982176249537,0.61515944881209,0.628477490914359,0.648548028232445,0.528403423058904,0.534588740406015,0.000759493430139,0.000743433412733,0.000731785854284,0.000720818289448,0.000735180685551,0.000728517338682,0.000765269984748,0.000740003552357,0.000728788088594,0.00071977114021,0.000400967226855,0.000416462974151,0.000418477426376,0.000429460336943,0.000428556631998,0.000422093912513,0.000437591542498,0.000410314679534,0.000493618446035,0.000480487097083
